﻿# Wavefront OBJ file automatically generated by Tiled2Unity

# Vertices (Count = 907)
v -69 -55 0
v -70 -55 0
v -70 -54 0
v -69 -54 0
v -10 -55 0
v -11 -55 0
v -11 -54 0
v -10 -54 0
v -9 -55 0
v -9 -54 0
v -70 -56 0
v -71 -56 0
v -71 -55 0
v -69 -56 0
v -9 -56 0
v -10 -56 0
v -8 -56 0
v -8 -55 0
v -71 -57 0
v -72 -57 0
v -72 -56 0
v -70 -57 0
v -8 -57 0
v -9 -57 0
v -7 -57 0
v -7 -56 0
v -72 -58 0
v -73 -58 0
v -73 -57 0
v -71 -58 0
v -7 -58 0
v -8 -58 0
v -6 -58 0
v -6 -57 0
v -73 -59 0
v -74 -59 0
v -74 -58 0
v -72 -59 0
v -6 -59 0
v -7 -59 0
v -5 -59 0
v -5 -58 0
v -74 -60 0
v -75 -60 0
v -75 -59 0
v -73 -60 0
v -5 -60 0
v -6 -60 0
v -4 -60 0
v -4 -59 0
v -75 -61 0
v -76 -61 0
v -76 -60 0
v -74 -61 0
v -4 -61 0
v -5 -61 0
v -3 -61 0
v -3 -60 0
v -75 -62 0
v -76 -62 0
v -3 -62 0
v -4 -62 0
v -75 -63 0
v -76 -63 0
v -3 -63 0
v -4 -63 0
v -75 -64 0
v -76 -64 0
v -3 -64 0
v -4 -64 0
v -75 -65 0
v -76 -65 0
v -3 -65 0
v -4 -65 0
v -75 -66 0
v -76 -66 0
v -4 -66 0
v -5 -66 0
v -5 -65 0
v -3 -66 0
v -75 -67 0
v -76 -67 0
v -5 -67 0
v -6 -67 0
v -6 -66 0
v -4 -67 0
v -3 -67 0
v -75 -68 0
v -76 -68 0
v -25 -68 0
v -26 -68 0
v -26 -67 0
v -25 -67 0
v -24 -68 0
v -24 -67 0
v -23 -68 0
v -23 -67 0
v -22 -68 0
v -22 -67 0
v -21 -68 0
v -21 -67 0
v -20 -68 0
v -20 -67 0
v -19 -68 0
v -19 -67 0
v -6 -68 0
v -7 -68 0
v -7 -67 0
v -5 -68 0
v -4 -68 0
v -3 -68 0
v -75 -69 0
v -76 -69 0
v -49 -69 0
v -50 -69 0
v -50 -68 0
v -49 -68 0
v -48 -69 0
v -48 -68 0
v -47 -69 0
v -47 -68 0
v -26 -69 0
v -27 -69 0
v -27 -68 0
v -25 -69 0
v -15 -69 0
v -16 -69 0
v -16 -68 0
v -15 -68 0
v -14 -69 0
v -14 -68 0
v -13 -69 0
v -13 -68 0
v -7 -69 0
v -8 -69 0
v -8 -68 0
v -6 -69 0
v -5 -69 0
v -4 -69 0
v -3 -69 0
v -75 -70 0
v -76 -70 0
v -27 -70 0
v -28 -70 0
v -28 -69 0
v -26 -70 0
v -25 -70 0
v -8 -70 0
v -9 -70 0
v -9 -69 0
v -7 -70 0
v -6 -70 0
v -5 -70 0
v -4 -70 0
v -3 -70 0
v -75 -71 0
v -76 -71 0
v -60 -71 0
v -61 -71 0
v -61 -70 0
v -60 -70 0
v -36 -71 0
v -37 -71 0
v -37 -70 0
v -36 -70 0
v -35 -71 0
v -35 -70 0
v -34 -71 0
v -34 -70 0
v -33 -71 0
v -33 -70 0
v -32 -71 0
v -32 -70 0
v -31 -71 0
v -31 -70 0
v -30 -71 0
v -30 -70 0
v -29 -71 0
v -29 -70 0
v -28 -71 0
v -27 -71 0
v -26 -71 0
v -25 -71 0
v -9 -71 0
v -10 -71 0
v -10 -70 0
v -8 -71 0
v -7 -71 0
v -6 -71 0
v -5 -71 0
v -4 -71 0
v -3 -71 0
v -75 -72 0
v -76 -72 0
v -60 -72 0
v -61 -72 0
v -59 -72 0
v -59 -71 0
v -37 -72 0
v -38 -72 0
v -38 -71 0
v -10 -72 0
v -11 -72 0
v -11 -71 0
v -9 -72 0
v -8 -72 0
v -7 -72 0
v -6 -72 0
v -5 -72 0
v -4 -72 0
v -3 -72 0
v -75 -73 0
v -76 -73 0
v -60 -73 0
v -61 -73 0
v -58 -73 0
v -59 -73 0
v -58 -72 0
v -38 -73 0
v -39 -73 0
v -39 -72 0
v -11 -73 0
v -12 -73 0
v -12 -72 0
v -10 -73 0
v -9 -73 0
v -8 -73 0
v -7 -73 0
v -6 -73 0
v -5 -73 0
v -4 -73 0
v -3 -73 0
v -75 -74 0
v -76 -74 0
v -60 -74 0
v -61 -74 0
v -12 -74 0
v -13 -74 0
v -13 -73 0
v -11 -74 0
v -10 -74 0
v -9 -74 0
v -8 -74 0
v -7 -74 0
v -6 -74 0
v -5 -74 0
v -4 -74 0
v -3 -74 0
v -75 -75 0
v -76 -75 0
v -60 -75 0
v -61 -75 0
v -13 -75 0
v -14 -75 0
v -14 -74 0
v -12 -75 0
v -11 -75 0
v -10 -75 0
v -9 -75 0
v -8 -75 0
v -7 -75 0
v -6 -75 0
v -5 -75 0
v -4 -75 0
v -3 -75 0
v -75 -76 0
v -76 -76 0
v -60 -76 0
v -61 -76 0
v -21 -76 0
v -22 -76 0
v -22 -75 0
v -21 -75 0
v -20 -76 0
v -20 -75 0
v -19 -76 0
v -19 -75 0
v -18 -76 0
v -18 -75 0
v -17 -76 0
v -17 -75 0
v -16 -76 0
v -16 -75 0
v -15 -76 0
v -15 -75 0
v -14 -76 0
v -13 -76 0
v -12 -76 0
v -11 -76 0
v -10 -76 0
v -9 -76 0
v -8 -76 0
v -7 -76 0
v -6 -76 0
v -5 -76 0
v -4 -76 0
v -3 -76 0
v -75 -77 0
v -76 -77 0
v -60 -77 0
v -61 -77 0
v -3 -77 0
v -4 -77 0
v -75 -78 0
v -76 -78 0
v -60 -78 0
v -61 -78 0
v -3 -78 0
v -4 -78 0
v -75 -79 0
v -76 -79 0
v -60 -79 0
v -61 -79 0
v -52 -79 0
v -53 -79 0
v -53 -78 0
v -52 -78 0
v -44 -79 0
v -45 -79 0
v -45 -78 0
v -44 -78 0
v -39 -79 0
v -40 -79 0
v -40 -78 0
v -39 -78 0
v -38 -79 0
v -38 -78 0
v -37 -79 0
v -37 -78 0
v -4 -79 0
v -5 -79 0
v -5 -78 0
v -3 -79 0
v -75 -80 0
v -76 -80 0
v -74 -80 0
v -74 -79 0
v -73 -80 0
v -73 -79 0
v -72 -80 0
v -72 -79 0
v -71 -80 0
v -71 -79 0
v -70 -80 0
v -70 -79 0
v -65 -80 0
v -66 -80 0
v -66 -79 0
v -65 -79 0
v -64 -80 0
v -64 -79 0
v -63 -80 0
v -63 -79 0
v -62 -80 0
v -62 -79 0
v -61 -80 0
v -60 -80 0
v -51 -80 0
v -52 -80 0
v -51 -79 0
v -45 -80 0
v -46 -80 0
v -46 -79 0
v -5 -80 0
v -6 -80 0
v -6 -79 0
v -4 -80 0
v -3 -80 0
v -75 -81 0
v -76 -81 0
v -65 -81 0
v -66 -81 0
v -60 -81 0
v -61 -81 0
v -50 -81 0
v -51 -81 0
v -50 -80 0
v -46 -81 0
v -47 -81 0
v -47 -80 0
v -6 -81 0
v -7 -81 0
v -7 -80 0
v -5 -81 0
v -4 -81 0
v -3 -81 0
v -74 -82 0
v -75 -82 0
v -74 -81 0
v -64 -82 0
v -65 -82 0
v -64 -81 0
v -61 -82 0
v -62 -82 0
v -62 -81 0
v -50 -82 0
v -51 -82 0
v -46 -82 0
v -47 -82 0
v -31 -82 0
v -32 -82 0
v -32 -81 0
v -31 -81 0
v -30 -82 0
v -30 -81 0
v -29 -82 0
v -29 -81 0
v -28 -82 0
v -28 -81 0
v -27 -82 0
v -27 -81 0
v -26 -82 0
v -26 -81 0
v -25 -82 0
v -25 -81 0
v -24 -82 0
v -24 -81 0
v -23 -82 0
v -23 -81 0
v -22 -82 0
v -22 -81 0
v -21 -82 0
v -21 -81 0
v -20 -82 0
v -20 -81 0
v -19 -82 0
v -19 -81 0
v -18 -82 0
v -18 -81 0
v -7 -82 0
v -8 -82 0
v -8 -81 0
v -6 -82 0
v -5 -82 0
v -4 -82 0
v -3 -82 0
v -74 -83 0
v -75 -83 0
v -73 -83 0
v -73 -82 0
v -72 -83 0
v -72 -82 0
v -63 -83 0
v -64 -83 0
v -63 -82 0
v -61 -83 0
v -62 -83 0
v -50 -83 0
v -51 -83 0
v -46 -83 0
v -47 -83 0
v -8 -83 0
v -9 -83 0
v -9 -82 0
v -7 -83 0
v -6 -83 0
v -5 -83 0
v -4 -83 0
v -3 -83 0
v -74 -84 0
v -75 -84 0
v -62 -84 0
v -63 -84 0
v -61 -84 0
v -50 -84 0
v -51 -84 0
v -46 -84 0
v -47 -84 0
v -45 -84 0
v -45 -83 0
v -44 -84 0
v -44 -83 0
v -43 -84 0
v -43 -83 0
v -11 -84 0
v -12 -84 0
v -12 -83 0
v -11 -83 0
v -10 -84 0
v -10 -83 0
v -9 -84 0
v -8 -84 0
v -7 -84 0
v -6 -84 0
v -5 -84 0
v -4 -84 0
v -3 -84 0
v -74 -85 0
v -75 -85 0
v -61 -85 0
v -62 -85 0
v -50 -85 0
v -51 -85 0
v -46 -85 0
v -47 -85 0
v -10 -85 0
v -11 -85 0
v -9 -85 0
v -8 -85 0
v -7 -85 0
v -6 -85 0
v -5 -85 0
v -4 -85 0
v -3 -85 0
v -74 -86 0
v -75 -86 0
v -61 -86 0
v -62 -86 0
v -50 -86 0
v -51 -86 0
v -49 -86 0
v -49 -85 0
v -46 -86 0
v -47 -86 0
v -11 -86 0
v -12 -86 0
v -12 -85 0
v -10 -86 0
v -9 -86 0
v -8 -86 0
v -7 -86 0
v -6 -86 0
v -5 -86 0
v -4 -86 0
v -3 -86 0
v -74 -87 0
v -75 -87 0
v -61 -87 0
v -62 -87 0
v -50 -87 0
v -51 -87 0
v -46 -87 0
v -47 -87 0
v -45 -87 0
v -45 -86 0
v -44 -87 0
v -44 -86 0
v -43 -87 0
v -43 -86 0
v -42 -87 0
v -42 -86 0
v -41 -87 0
v -41 -86 0
v -40 -87 0
v -40 -86 0
v -12 -87 0
v -13 -87 0
v -13 -86 0
v -11 -87 0
v -10 -87 0
v -9 -87 0
v -8 -87 0
v -7 -87 0
v -6 -87 0
v -5 -87 0
v -4 -87 0
v -3 -87 0
v -74 -88 0
v -75 -88 0
v -61 -88 0
v -62 -88 0
v -50 -88 0
v -51 -88 0
v -46 -88 0
v -47 -88 0
v -26 -88 0
v -27 -88 0
v -27 -87 0
v -26 -87 0
v -25 -88 0
v -25 -87 0
v -20 -88 0
v -21 -88 0
v -21 -87 0
v -20 -87 0
v -19 -88 0
v -19 -87 0
v -18 -88 0
v -18 -87 0
v -13 -88 0
v -14 -88 0
v -14 -87 0
v -12 -88 0
v -11 -88 0
v -10 -88 0
v -9 -88 0
v -8 -88 0
v -7 -88 0
v -6 -88 0
v -5 -88 0
v -4 -88 0
v -3 -88 0
v -74 -89 0
v -75 -89 0
v -61 -89 0
v -62 -89 0
v -50 -89 0
v -51 -89 0
v -46 -89 0
v -47 -89 0
v -27 -89 0
v -28 -89 0
v -28 -88 0
v -26 -89 0
v -25 -89 0
v -24 -89 0
v -24 -88 0
v -14 -89 0
v -15 -89 0
v -15 -88 0
v -13 -89 0
v -12 -89 0
v -11 -89 0
v -10 -89 0
v -9 -89 0
v -8 -89 0
v -7 -89 0
v -6 -89 0
v -5 -89 0
v -4 -89 0
v -3 -89 0
v -74 -90 0
v -75 -90 0
v -61 -90 0
v -62 -90 0
v -50 -90 0
v -51 -90 0
v -46 -90 0
v -47 -90 0
v -45 -90 0
v -45 -89 0
v -44 -90 0
v -44 -89 0
v -43 -90 0
v -43 -89 0
v -42 -90 0
v -42 -89 0
v -41 -90 0
v -41 -89 0
v -40 -90 0
v -40 -89 0
v -39 -90 0
v -39 -89 0
v -38 -90 0
v -38 -89 0
v -37 -90 0
v -37 -89 0
v -36 -90 0
v -36 -89 0
v -35 -90 0
v -35 -89 0
v -34 -90 0
v -34 -89 0
v -33 -90 0
v -33 -89 0
v -28 -90 0
v -29 -90 0
v -29 -89 0
v -27 -90 0
v -26 -90 0
v -25 -90 0
v -24 -90 0
v -23 -90 0
v -23 -89 0
v -15 -90 0
v -16 -90 0
v -16 -89 0
v -14 -90 0
v -13 -90 0
v -12 -90 0
v -11 -90 0
v -10 -90 0
v -9 -90 0
v -8 -90 0
v -7 -90 0
v -6 -90 0
v -5 -90 0
v -4 -90 0
v -3 -90 0
v -74 -91 0
v -75 -91 0
v -61 -91 0
v -62 -91 0
v -50 -91 0
v -51 -91 0
v -46 -91 0
v -47 -91 0
v -33 -91 0
v -34 -91 0
v -29 -91 0
v -30 -91 0
v -30 -90 0
v -28 -91 0
v -27 -91 0
v -26 -91 0
v -25 -91 0
v -24 -91 0
v -23 -91 0
v -22 -91 0
v -22 -90 0
v -21 -91 0
v -21 -90 0
v -20 -91 0
v -20 -90 0
v -19 -91 0
v -19 -90 0
v -18 -91 0
v -18 -90 0
v -17 -91 0
v -17 -90 0
v -16 -91 0
v -15 -91 0
v -14 -91 0
v -13 -91 0
v -12 -91 0
v -11 -91 0
v -10 -91 0
v -9 -91 0
v -8 -91 0
v -7 -91 0
v -6 -91 0
v -5 -91 0
v -4 -91 0
v -3 -91 0
v -74 -92 0
v -75 -92 0
v -61 -92 0
v -62 -92 0
v -60 -92 0
v -60 -91 0
v -59 -92 0
v -59 -91 0
v -58 -92 0
v -58 -91 0
v -57 -92 0
v -57 -91 0
v -56 -92 0
v -56 -91 0
v -55 -92 0
v -55 -91 0
v -54 -92 0
v -54 -91 0
v -53 -92 0
v -53 -91 0
v -52 -92 0
v -52 -91 0
v -51 -92 0
v -50 -92 0
v -46 -92 0
v -47 -92 0
v -45 -92 0
v -45 -91 0
v -44 -92 0
v -44 -91 0
v -43 -92 0
v -43 -91 0
v -42 -92 0
v -42 -91 0
v -41 -92 0
v -41 -91 0
v -40 -92 0
v -40 -91 0
v -39 -92 0
v -39 -91 0
v -38 -92 0
v -38 -91 0
v -37 -92 0
v -37 -91 0
v -36 -92 0
v -36 -91 0
v -35 -92 0
v -35 -91 0
v -34 -92 0
v -30 -92 0
v -31 -92 0
v -31 -91 0
v -29 -92 0
v -74 -93 0
v -75 -93 0
v -73 -93 0
v -73 -92 0
v -72 -93 0
v -72 -92 0
v -71 -93 0
v -71 -92 0
v -70 -93 0
v -70 -92 0
v -69 -93 0
v -69 -92 0
v -68 -93 0
v -68 -92 0
v -67 -93 0
v -67 -92 0
v -66 -93 0
v -66 -92 0
v -65 -93 0
v -65 -92 0
v -64 -93 0
v -64 -92 0
v -31 -93 0
v -32 -93 0
v -32 -92 0
v -30 -93 0
v -29 -93 0
v -64 -94 0
v -65 -94 0
v -32 -94 0
v -33 -94 0
v -33 -93 0
v -31 -94 0
v -30 -94 0
v -29 -94 0
v -64 -95 0
v -65 -95 0
v -63 -95 0
v -63 -94 0
v -62 -95 0
v -62 -94 0
v -61 -95 0
v -61 -94 0
v -60 -95 0
v -60 -94 0
v -59 -95 0
v -59 -94 0
v -58 -95 0
v -58 -94 0
v -57 -95 0
v -57 -94 0
v -56 -95 0
v -56 -94 0
v -55 -95 0
v -55 -94 0
v -54 -95 0
v -54 -94 0
v -53 -95 0
v -53 -94 0
v -52 -95 0
v -52 -94 0
v -51 -95 0
v -51 -94 0
v -50 -95 0
v -50 -94 0
v -49 -95 0
v -49 -94 0
v -48 -95 0
v -48 -94 0
v -47 -95 0
v -47 -94 0
v -46 -95 0
v -46 -94 0
v -45 -95 0
v -45 -94 0
v -44 -95 0
v -44 -94 0
v -43 -95 0
v -43 -94 0
v -42 -95 0
v -42 -94 0
v -41 -95 0
v -41 -94 0
v -40 -95 0
v -40 -94 0
v -39 -95 0
v -39 -94 0
v -38 -95 0
v -38 -94 0
v -37 -95 0
v -37 -94 0
v -36 -95 0
v -36 -94 0
v -35 -95 0
v -35 -94 0
v -34 -95 0
v -34 -94 0
v -33 -95 0
v -32 -95 0
v -31 -95 0
v -30 -95 0
v -29 -95 0
v -57 -74 0
v -58 -74 0
v -57 -73 0
v -39 -74 0
v -40 -74 0
v -40 -73 0
v -56 -75 0
v -57 -75 0
v -56 -74 0
v -40 -75 0
v -41 -75 0
v -41 -74 0
v -55 -76 0
v -56 -76 0
v -55 -75 0
v -41 -76 0
v -42 -76 0
v -42 -75 0
v -54 -77 0
v -55 -77 0
v -54 -76 0
v -42 -77 0
v -43 -77 0
v -43 -76 0
v -54 -78 0
v -53 -77 0
v -43 -78 0
v -44 -77 0

# Texture cooridinates (Count = 68)
vt 0.8750153 0.8750153
vt 0.9999847 0.8750153
vt 0.9999847 0.9999847
vt 0.8750153 0.9999847
vt 0.8750153 0.7500153
vt 0.9999847 0.7500153
vt 0.9999847 0.8749847
vt 0.8750153 0.8749847
vt 0.7500153 0.8750153
vt 0.8749847 0.8750153
vt 0.8749847 0.9999847
vt 0.7500153 0.9999847
vt 0.7500153 0.7500153
vt 0.8749847 0.7500153
vt 0.8749847 0.8749847
vt 0.7500153 0.8749847
vt 0.2500153 0.8750153
vt 0.3749847 0.8750153
vt 0.3749847 0.9999847
vt 0.2500153 0.9999847
vt 0.5000153 0.8750153
vt 0.6249847 0.8750153
vt 0.6249847 0.9999847
vt 0.5000153 0.9999847
vt 1.525879E-05 0.8750153
vt 0.1249847 0.8750153
vt 0.1249847 0.9999847
vt 1.525879E-05 0.9999847
vt 0.3750153 0.8750153
vt 0.4999847 0.8750153
vt 0.4999847 0.9999847
vt 0.3750153 0.9999847
vt 1.525879E-05 0.7500153
vt 0.1249847 0.7500153
vt 0.1249847 0.8749847
vt 1.525879E-05 0.8749847
vt 1.525879E-05 0.6250153
vt 0.1249847 0.6250153
vt 0.1249847 0.7499847
vt 1.525879E-05 0.7499847
vt 1.525879E-05 0.5000153
vt 0.1249847 0.5000153
vt 0.1249847 0.6249847
vt 1.525879E-05 0.6249847
vt 1.525879E-05 0.3750153
vt 0.1249847 0.3750153
vt 0.1249847 0.4999847
vt 1.525879E-05 0.4999847
vt 0.8750153 1.525879E-05
vt 0.9999847 1.525879E-05
vt 0.9999847 0.1249847
vt 0.8750153 0.1249847
vt 0.1250153 0.8750153
vt 0.2499847 0.8750153
vt 0.2499847 0.9999847
vt 0.1250153 0.9999847
vt 0.1250153 0.5000153
vt 0.2499847 0.5000153
vt 0.2499847 0.6249847
vt 0.1250153 0.6249847
vt 0.7500153 0.6250153
vt 0.8749847 0.6250153
vt 0.8749847 0.7499847
vt 0.7500153 0.7499847
vt 0.8750153 0.6250153
vt 0.9999847 0.6250153
vt 0.9999847 0.7499847
vt 0.8750153 0.7499847

# Normal
vn 0 0 -1

# Groups (Count = 1)

g mesh_0001
f 1/1/1 2/2/1 3/3/1 4/4/1
f 5/5/1 6/6/1 7/7/1 8/8/1
f 9/9/1 5/10/1 8/11/1 10/12/1
f 11/1/1 12/2/1 13/3/1 2/4/1
f 14/13/1 11/14/1 2/15/1 1/16/1
f 15/5/1 16/6/1 5/7/1 9/8/1
f 17/9/1 15/10/1 9/11/1 18/12/1
f 19/1/1 20/2/1 21/3/1 12/4/1
f 22/13/1 19/14/1 12/15/1 11/16/1
f 23/5/1 24/6/1 15/7/1 17/8/1
f 25/9/1 23/10/1 17/11/1 26/12/1
f 27/1/1 28/2/1 29/3/1 20/4/1
f 30/13/1 27/14/1 20/15/1 19/16/1
f 31/5/1 32/6/1 23/7/1 25/8/1
f 33/9/1 31/10/1 25/11/1 34/12/1
f 35/1/1 36/2/1 37/3/1 28/4/1
f 38/13/1 35/14/1 28/15/1 27/16/1
f 39/5/1 40/6/1 31/7/1 33/8/1
f 41/9/1 39/10/1 33/11/1 42/12/1
f 43/1/1 44/2/1 45/3/1 36/4/1
f 46/13/1 43/14/1 36/15/1 35/16/1
f 47/5/1 48/6/1 39/7/1 41/8/1
f 49/9/1 47/10/1 41/11/1 50/12/1
f 51/1/1 52/2/1 53/3/1 44/4/1
f 54/13/1 51/14/1 44/15/1 43/16/1
f 55/5/1 56/6/1 47/7/1 49/8/1
f 57/9/1 55/10/1 49/11/1 58/12/1
f 59/17/1 60/18/1 52/19/1 51/20/1
f 61/17/1 62/18/1 55/19/1 57/20/1
f 63/17/1 64/18/1 60/19/1 59/20/1
f 65/17/1 66/18/1 62/19/1 61/20/1
f 67/17/1 68/18/1 64/19/1 63/20/1
f 69/17/1 70/18/1 66/19/1 65/20/1
f 71/17/1 72/18/1 68/19/1 67/20/1
f 73/17/1 74/18/1 70/19/1 69/20/1
f 75/17/1 76/18/1 72/19/1 71/20/1
f 77/1/1 78/2/1 79/3/1 74/4/1
f 80/17/1 77/18/1 74/19/1 73/20/1
f 81/17/1 82/18/1 76/19/1 75/20/1
f 83/1/1 84/2/1 85/3/1 78/4/1
f 86/21/1 83/22/1 78/23/1 77/24/1
f 87/17/1 86/18/1 77/19/1 80/20/1
f 88/17/1 89/18/1 82/19/1 81/20/1
f 90/1/1 91/2/1 92/3/1 93/4/1
f 94/25/1 90/26/1 93/27/1 95/28/1
f 96/25/1 94/26/1 95/27/1 97/28/1
f 98/25/1 96/26/1 97/27/1 99/28/1
f 100/25/1 98/26/1 99/27/1 101/28/1
f 102/25/1 100/26/1 101/27/1 103/28/1
f 104/25/1 102/26/1 103/27/1 105/28/1
f 106/1/1 107/2/1 108/3/1 84/4/1
f 109/21/1 106/22/1 84/23/1 83/24/1
f 110/29/1 109/30/1 83/31/1 86/32/1
f 111/17/1 110/18/1 86/19/1 87/20/1
f 112/17/1 113/18/1 89/19/1 88/20/1
f 114/33/1 115/34/1 116/35/1 117/36/1
f 118/33/1 114/34/1 117/35/1 119/36/1
f 120/33/1 118/34/1 119/35/1 121/36/1
f 122/1/1 123/2/1 124/3/1 91/4/1
f 125/21/1 122/22/1 91/23/1 90/24/1
f 126/37/1 127/38/1 128/39/1 129/40/1
f 130/37/1 126/38/1 129/39/1 131/40/1
f 132/37/1 130/38/1 131/39/1 133/40/1
f 134/1/1 135/2/1 136/3/1 107/4/1
f 137/21/1 134/22/1 107/23/1 106/24/1
f 138/29/1 137/30/1 106/31/1 109/32/1
f 139/29/1 138/30/1 109/31/1 110/32/1
f 140/17/1 139/18/1 110/19/1 111/20/1
f 141/17/1 142/18/1 113/19/1 112/20/1
f 143/1/1 144/2/1 145/3/1 123/4/1
f 146/21/1 143/22/1 123/23/1 122/24/1
f 147/21/1 146/22/1 122/23/1 125/24/1
f 148/1/1 149/2/1 150/3/1 135/4/1
f 151/21/1 148/22/1 135/23/1 134/24/1
f 152/29/1 151/30/1 134/31/1 137/32/1
f 153/29/1 152/30/1 137/31/1 138/32/1
f 154/29/1 153/30/1 138/31/1 139/32/1
f 155/17/1 154/18/1 139/19/1 140/20/1
f 156/17/1 157/18/1 142/19/1 141/20/1
f 158/9/1 159/10/1 160/11/1 161/12/1
f 162/1/1 163/2/1 164/3/1 165/4/1
f 166/41/1 162/42/1 165/43/1 167/44/1
f 168/41/1 166/42/1 167/43/1 169/44/1
f 170/25/1 168/26/1 169/27/1 171/28/1
f 172/25/1 170/26/1 171/27/1 173/28/1
f 174/25/1 172/26/1 173/27/1 175/28/1
f 176/25/1 174/26/1 175/27/1 177/28/1
f 178/25/1 176/26/1 177/27/1 179/28/1
f 180/25/1 178/26/1 179/27/1 144/28/1
f 181/21/1 180/22/1 144/23/1 143/24/1
f 182/21/1 181/22/1 143/23/1 146/24/1
f 183/21/1 182/22/1 146/23/1 147/24/1
f 184/1/1 185/2/1 186/3/1 149/4/1
f 187/21/1 184/22/1 149/23/1 148/24/1
f 188/29/1 187/30/1 148/31/1 151/32/1
f 189/29/1 188/30/1 151/31/1 152/32/1
f 190/29/1 189/30/1 152/31/1 153/32/1
f 191/29/1 190/30/1 153/31/1 154/32/1
f 192/17/1 191/18/1 154/19/1 155/20/1
f 193/17/1 194/18/1 157/19/1 156/20/1
f 195/17/1 196/18/1 159/19/1 158/20/1
f 197/9/1 195/10/1 158/11/1 198/12/1
f 199/1/1 200/2/1 201/3/1 163/4/1
f 202/1/1 203/2/1 204/3/1 185/4/1
f 205/21/1 202/22/1 185/23/1 184/24/1
f 206/29/1 205/30/1 184/31/1 187/32/1
f 207/29/1 206/30/1 187/31/1 188/32/1
f 208/29/1 207/30/1 188/31/1 189/32/1
f 209/29/1 208/30/1 189/31/1 190/32/1
f 210/29/1 209/30/1 190/31/1 191/32/1
f 211/17/1 210/18/1 191/19/1 192/20/1
f 212/17/1 213/18/1 194/19/1 193/20/1
f 214/17/1 215/18/1 196/19/1 195/20/1
f 216/9/1 217/10/1 197/11/1 218/12/1
f 219/1/1 220/2/1 221/3/1 200/4/1
f 222/1/1 223/2/1 224/3/1 203/4/1
f 225/21/1 222/22/1 203/23/1 202/24/1
f 226/29/1 225/30/1 202/31/1 205/32/1
f 227/29/1 226/30/1 205/31/1 206/32/1
f 228/29/1 227/30/1 206/31/1 207/32/1
f 229/29/1 228/30/1 207/31/1 208/32/1
f 230/29/1 229/30/1 208/31/1 209/32/1
f 231/29/1 230/30/1 209/31/1 210/32/1
f 232/17/1 231/18/1 210/19/1 211/20/1
f 233/17/1 234/18/1 213/19/1 212/20/1
f 235/17/1 236/18/1 215/19/1 214/20/1
f 237/1/1 238/2/1 239/3/1 223/4/1
f 240/21/1 237/22/1 223/23/1 222/24/1
f 241/29/1 240/30/1 222/31/1 225/32/1
f 242/29/1 241/30/1 225/31/1 226/32/1
f 243/29/1 242/30/1 226/31/1 227/32/1
f 244/29/1 243/30/1 227/31/1 228/32/1
f 245/29/1 244/30/1 228/31/1 229/32/1
f 246/29/1 245/30/1 229/31/1 230/32/1
f 247/29/1 246/30/1 230/31/1 231/32/1
f 248/17/1 247/18/1 231/19/1 232/20/1
f 249/17/1 250/18/1 234/19/1 233/20/1
f 251/17/1 252/18/1 236/19/1 235/20/1
f 253/1/1 254/2/1 255/3/1 238/4/1
f 256/21/1 253/22/1 238/23/1 237/24/1
f 257/21/1 256/22/1 237/23/1 240/24/1
f 258/21/1 257/22/1 240/23/1 241/24/1
f 259/21/1 258/22/1 241/23/1 242/24/1
f 260/21/1 259/22/1 242/23/1 243/24/1
f 261/21/1 260/22/1 243/23/1 244/24/1
f 262/21/1 261/22/1 244/23/1 245/24/1
f 263/21/1 262/22/1 245/23/1 246/24/1
f 264/21/1 263/22/1 246/23/1 247/24/1
f 265/17/1 264/18/1 247/19/1 248/20/1
f 266/17/1 267/18/1 250/19/1 249/20/1
f 268/17/1 269/18/1 252/19/1 251/20/1
f 270/25/1 271/26/1 272/27/1 273/28/1
f 274/25/1 270/26/1 273/27/1 275/28/1
f 276/25/1 274/26/1 275/27/1 277/28/1
f 278/25/1 276/26/1 277/27/1 279/28/1
f 280/25/1 278/26/1 279/27/1 281/28/1
f 282/25/1 280/26/1 281/27/1 283/28/1
f 284/25/1 282/26/1 283/27/1 285/28/1
f 286/25/1 284/26/1 285/27/1 254/28/1
f 287/17/1 286/18/1 254/19/1 253/20/1
f 288/17/1 287/18/1 253/19/1 256/20/1
f 289/17/1 288/18/1 256/19/1 257/20/1
f 290/17/1 289/18/1 257/19/1 258/20/1
f 291/17/1 290/18/1 258/19/1 259/20/1
f 292/17/1 291/18/1 259/19/1 260/20/1
f 293/17/1 292/18/1 260/19/1 261/20/1
f 294/17/1 293/18/1 261/19/1 262/20/1
f 295/17/1 294/18/1 262/19/1 263/20/1
f 296/17/1 295/18/1 263/19/1 264/20/1
f 297/17/1 296/18/1 264/19/1 265/20/1
f 298/17/1 299/18/1 267/19/1 266/20/1
f 300/17/1 301/18/1 269/19/1 268/20/1
f 302/17/1 303/18/1 296/19/1 297/20/1
f 304/17/1 305/18/1 299/19/1 298/20/1
f 306/17/1 307/18/1 301/19/1 300/20/1
f 308/17/1 309/18/1 303/19/1 302/20/1
f 310/17/1 311/18/1 305/19/1 304/20/1
f 312/17/1 313/18/1 307/19/1 306/20/1
f 314/9/1 315/10/1 316/11/1 317/12/1
f 318/1/1 319/2/1 320/3/1 321/4/1
f 322/25/1 323/26/1 324/27/1 325/28/1
f 326/25/1 322/26/1 325/27/1 327/28/1
f 328/25/1 326/26/1 327/27/1 329/28/1
f 330/1/1 331/2/1 332/3/1 309/4/1
f 333/17/1 330/18/1 309/19/1 308/20/1
f 334/17/1 335/18/1 311/19/1 310/20/1
f 336/25/1 334/26/1 310/27/1 337/28/1
f 338/25/1 336/26/1 337/27/1 339/28/1
f 340/25/1 338/26/1 339/27/1 341/28/1
f 342/37/1 340/38/1 341/39/1 343/40/1
f 344/37/1 342/38/1 343/39/1 345/40/1
f 346/37/1 347/38/1 348/39/1 349/40/1
f 350/37/1 346/38/1 349/39/1 351/40/1
f 352/25/1 350/26/1 351/27/1 353/28/1
f 354/25/1 352/26/1 353/27/1 355/28/1
f 356/25/1 354/26/1 355/27/1 313/28/1
f 357/17/1 356/18/1 313/19/1 312/20/1
f 358/9/1 359/10/1 314/11/1 360/12/1
f 361/1/1 362/2/1 363/3/1 319/4/1
f 364/1/1 365/2/1 366/3/1 331/4/1
f 367/21/1 364/22/1 331/23/1 330/24/1
f 368/17/1 367/18/1 330/19/1 333/20/1
f 369/5/1 370/6/1 335/7/1 334/8/1
f 371/5/1 372/6/1 347/7/1 346/8/1
f 373/13/1 374/14/1 356/15/1 357/16/1
f 375/9/1 376/10/1 358/11/1 377/12/1
f 378/1/1 379/2/1 380/3/1 362/4/1
f 381/1/1 382/2/1 383/3/1 365/4/1
f 384/21/1 381/22/1 365/23/1 364/24/1
f 385/29/1 384/30/1 364/31/1 367/32/1
f 386/17/1 385/18/1 367/19/1 368/20/1
f 387/9/1 388/10/1 369/11/1 389/12/1
f 390/5/1 391/6/1 371/7/1 392/8/1
f 393/1/1 394/2/1 395/3/1 374/4/1
f 396/17/1 397/18/1 376/19/1 375/20/1
f 398/17/1 399/18/1 379/19/1 378/20/1
f 400/25/1 401/26/1 402/27/1 403/28/1
f 404/25/1 400/26/1 403/27/1 405/28/1
f 406/25/1 404/26/1 405/27/1 407/28/1
f 408/25/1 406/26/1 407/27/1 409/28/1
f 410/25/1 408/26/1 409/27/1 411/28/1
f 412/25/1 410/26/1 411/27/1 413/28/1
f 414/25/1 412/26/1 413/27/1 415/28/1
f 416/25/1 414/26/1 415/27/1 417/28/1
f 418/45/1 416/46/1 417/47/1 419/48/1
f 420/25/1 418/26/1 419/27/1 421/28/1
f 422/25/1 420/26/1 421/27/1 423/28/1
f 424/25/1 422/26/1 423/27/1 425/28/1
f 426/25/1 424/26/1 425/27/1 427/28/1
f 428/25/1 426/26/1 427/27/1 429/28/1
f 430/1/1 431/2/1 432/3/1 382/4/1
f 433/21/1 430/22/1 382/23/1 381/24/1
f 434/29/1 433/30/1 381/31/1 384/32/1
f 435/29/1 434/30/1 384/31/1 385/32/1
f 436/17/1 435/18/1 385/19/1 386/20/1
f 437/17/1 438/18/1 388/19/1 387/20/1
f 439/25/1 437/26/1 387/27/1 440/28/1
f 441/25/1 439/26/1 440/27/1 442/28/1
f 443/5/1 444/6/1 390/7/1 445/8/1
f 446/18/1 447/19/1 394/20/1 393/17/1
f 448/17/1 449/18/1 397/19/1 396/20/1
f 450/17/1 451/18/1 399/19/1 398/20/1
f 452/1/1 453/2/1 454/3/1 431/4/1
f 455/21/1 452/22/1 431/23/1 430/24/1
f 456/29/1 455/30/1 430/31/1 433/32/1
f 457/29/1 456/30/1 433/31/1 434/32/1
f 458/29/1 457/30/1 434/31/1 435/32/1
f 459/17/1 458/18/1 435/19/1 436/20/1
f 460/17/1 461/18/1 438/19/1 437/20/1
f 462/5/1 463/6/1 443/7/1 447/8/1
f 464/18/1 462/19/1 447/20/1 446/17/1
f 465/17/1 466/18/1 449/19/1 448/20/1
f 467/17/1 468/18/1 451/19/1 450/20/1
f 469/25/1 467/26/1 450/27/1 470/28/1
f 471/25/1 469/26/1 470/27/1 472/28/1
f 473/45/1 471/46/1 472/47/1 474/48/1
f 475/25/1 476/26/1 477/27/1 478/28/1
f 479/25/1 475/26/1 478/27/1 480/28/1
f 481/25/1 479/26/1 480/27/1 453/28/1
f 482/21/1 481/22/1 453/23/1 452/24/1
f 483/29/1 482/30/1 452/31/1 455/32/1
f 484/29/1 483/30/1 455/31/1 456/32/1
f 485/29/1 484/30/1 456/31/1 457/32/1
f 486/29/1 485/30/1 457/31/1 458/32/1
f 487/17/1 486/18/1 458/19/1 459/20/1
f 488/17/1 489/18/1 461/19/1 460/20/1
f 490/18/1 491/19/1 462/20/1 464/17/1
f 492/17/1 493/18/1 466/19/1 465/20/1
f 494/17/1 495/18/1 468/19/1 467/20/1
f 496/1/1 497/2/1 475/3/1 479/4/1
f 498/21/1 496/22/1 479/23/1 481/24/1
f 499/29/1 498/30/1 481/31/1 482/32/1
f 500/29/1 499/30/1 482/31/1 483/32/1
f 501/29/1 500/30/1 483/31/1 484/32/1
f 502/29/1 501/30/1 484/31/1 485/32/1
f 503/29/1 502/30/1 485/31/1 486/32/1
f 504/17/1 503/18/1 486/19/1 487/20/1
f 505/17/1 506/18/1 489/19/1 488/20/1
f 507/18/1 508/19/1 491/20/1 490/17/1
f 509/17/1 510/18/1 493/19/1 492/20/1
f 511/49/1 509/50/1 492/51/1 512/52/1
f 513/17/1 514/18/1 495/19/1 494/20/1
f 515/1/1 516/2/1 517/3/1 497/4/1
f 518/21/1 515/22/1 497/23/1 496/24/1
f 519/29/1 518/30/1 496/31/1 498/32/1
f 520/29/1 519/30/1 498/31/1 499/32/1
f 521/29/1 520/30/1 499/31/1 500/32/1
f 522/29/1 521/30/1 500/31/1 501/32/1
f 523/29/1 522/30/1 501/31/1 502/32/1
f 524/29/1 523/30/1 502/31/1 503/32/1
f 525/17/1 524/18/1 503/19/1 504/20/1
f 526/17/1 527/18/1 506/19/1 505/20/1
f 528/18/1 529/19/1 508/20/1 507/17/1
f 530/17/1 531/18/1 510/19/1 509/20/1
f 532/17/1 533/18/1 514/19/1 513/20/1
f 534/25/1 532/26/1 513/27/1 535/28/1
f 536/25/1 534/26/1 535/27/1 537/28/1
f 538/25/1 536/26/1 537/27/1 539/28/1
f 540/25/1 538/26/1 539/27/1 541/28/1
f 542/25/1 540/26/1 541/27/1 543/28/1
f 544/25/1 542/26/1 543/27/1 545/28/1
f 546/1/1 547/2/1 548/3/1 516/4/1
f 549/21/1 546/22/1 516/23/1 515/24/1
f 550/29/1 549/30/1 515/31/1 518/32/1
f 551/29/1 550/30/1 518/31/1 519/32/1
f 552/29/1 551/30/1 519/31/1 520/32/1
f 553/29/1 552/30/1 520/31/1 521/32/1
f 554/29/1 553/30/1 521/31/1 522/32/1
f 555/29/1 554/30/1 522/31/1 523/32/1
f 556/29/1 555/30/1 523/31/1 524/32/1
f 557/17/1 556/18/1 524/19/1 525/20/1
f 558/17/1 559/18/1 527/19/1 526/20/1
f 560/18/1 561/19/1 529/20/1 528/17/1
f 562/13/1 563/14/1 531/15/1 530/16/1
f 564/5/1 565/6/1 533/7/1 532/8/1
f 566/1/1 567/2/1 568/3/1 569/4/1
f 570/9/1 566/10/1 569/11/1 571/12/1
f 572/33/1 573/34/1 574/35/1 575/36/1
f 576/33/1 572/34/1 575/35/1 577/36/1
f 578/33/1 576/34/1 577/35/1 579/36/1
f 580/1/1 581/2/1 582/3/1 547/4/1
f 583/21/1 580/22/1 547/23/1 546/24/1
f 584/29/1 583/30/1 546/31/1 549/32/1
f 585/29/1 584/30/1 549/31/1 550/32/1
f 586/29/1 585/30/1 550/31/1 551/32/1
f 587/29/1 586/30/1 551/31/1 552/32/1
f 588/29/1 587/30/1 552/31/1 553/32/1
f 589/29/1 588/30/1 553/31/1 554/32/1
f 590/29/1 589/30/1 554/31/1 555/32/1
f 591/29/1 590/30/1 555/31/1 556/32/1
f 592/17/1 591/18/1 556/19/1 557/20/1
f 593/17/1 594/18/1 559/19/1 558/20/1
f 595/18/1 596/19/1 561/20/1 560/17/1
f 597/9/1 598/10/1 563/11/1 562/12/1
f 599/1/1 600/2/1 565/3/1 564/4/1
f 601/1/1 602/2/1 603/3/1 567/4/1
f 604/21/1 601/22/1 567/23/1 566/24/1
f 605/21/1 604/22/1 566/23/1 570/24/1
f 606/9/1 605/10/1 570/11/1 607/12/1
f 608/1/1 609/2/1 610/3/1 581/4/1
f 611/21/1 608/22/1 581/23/1 580/24/1
f 612/29/1 611/30/1 580/31/1 583/32/1
f 613/29/1 612/30/1 583/31/1 584/32/1
f 614/29/1 613/30/1 584/31/1 585/32/1
f 615/29/1 614/30/1 585/31/1 586/32/1
f 616/29/1 615/30/1 586/31/1 587/32/1
f 617/29/1 616/30/1 587/31/1 588/32/1
f 618/29/1 617/30/1 588/31/1 589/32/1
f 619/29/1 618/30/1 589/31/1 590/32/1
f 620/29/1 619/30/1 590/31/1 591/32/1
f 621/17/1 620/18/1 591/19/1 592/20/1
f 622/17/1 623/18/1 594/19/1 593/20/1
f 624/18/1 625/19/1 596/20/1 595/17/1
f 626/17/1 627/18/1 598/19/1 597/20/1
f 628/17/1 629/18/1 600/19/1 599/20/1
f 630/37/1 628/38/1 599/39/1 631/40/1
f 632/37/1 630/38/1 631/39/1 633/40/1
f 634/25/1 632/26/1 633/27/1 635/28/1
f 636/25/1 634/26/1 635/27/1 637/28/1
f 638/25/1 636/26/1 637/27/1 639/28/1
f 640/25/1 638/26/1 639/27/1 641/28/1
f 642/25/1 640/26/1 641/27/1 643/28/1
f 644/25/1 642/26/1 643/27/1 645/28/1
f 646/25/1 644/26/1 645/27/1 647/28/1
f 648/25/1 646/26/1 647/27/1 649/28/1
f 650/25/1 648/26/1 649/27/1 651/28/1
f 652/25/1 650/26/1 651/27/1 653/28/1
f 654/25/1 652/26/1 653/27/1 655/28/1
f 656/1/1 657/2/1 658/3/1 602/4/1
f 659/21/1 656/22/1 602/23/1 601/24/1
f 660/21/1 659/22/1 601/23/1 604/24/1
f 661/21/1 660/22/1 604/23/1 605/24/1
f 662/21/1 661/22/1 605/23/1 606/24/1
f 663/9/1 662/10/1 606/11/1 664/12/1
f 665/1/1 666/2/1 667/3/1 609/4/1
f 668/21/1 665/22/1 609/23/1 608/24/1
f 669/21/1 668/22/1 608/23/1 611/24/1
f 670/21/1 669/22/1 611/23/1 612/24/1
f 671/21/1 670/22/1 612/23/1 613/24/1
f 672/21/1 671/22/1 613/23/1 614/24/1
f 673/21/1 672/22/1 614/23/1 615/24/1
f 674/21/1 673/22/1 615/23/1 616/24/1
f 675/21/1 674/22/1 616/23/1 617/24/1
f 676/21/1 675/22/1 617/23/1 618/24/1
f 677/21/1 676/22/1 618/23/1 619/24/1
f 678/21/1 677/22/1 619/23/1 620/24/1
f 679/17/1 678/18/1 620/19/1 621/20/1
f 680/17/1 681/18/1 623/19/1 622/20/1
f 682/18/1 683/19/1 625/20/1 624/17/1
f 684/17/1 685/18/1 627/19/1 626/20/1
f 686/17/1 687/18/1 629/19/1 628/20/1
f 688/13/1 689/14/1 652/15/1 654/16/1
f 690/1/1 691/2/1 692/3/1 657/4/1
f 693/17/1 690/18/1 657/19/1 656/20/1
f 694/17/1 693/18/1 656/19/1 659/20/1
f 695/17/1 694/18/1 659/19/1 660/20/1
f 696/17/1 695/18/1 660/19/1 661/20/1
f 697/17/1 696/18/1 661/19/1 662/20/1
f 698/17/1 697/18/1 662/19/1 663/20/1
f 699/53/1 698/54/1 663/55/1 700/56/1
f 701/53/1 699/54/1 700/55/1 702/56/1
f 703/57/1 701/58/1 702/59/1 704/60/1
f 705/57/1 703/58/1 704/59/1 706/60/1
f 707/57/1 705/58/1 706/59/1 708/60/1
f 709/53/1 707/54/1 708/55/1 710/56/1
f 711/53/1 709/54/1 710/55/1 666/56/1
f 712/21/1 711/22/1 666/23/1 665/24/1
f 713/17/1 712/18/1 665/19/1 668/20/1
f 714/17/1 713/18/1 668/19/1 669/20/1
f 715/17/1 714/18/1 669/19/1 670/20/1
f 716/17/1 715/18/1 670/19/1 671/20/1
f 717/17/1 716/18/1 671/19/1 672/20/1
f 718/17/1 717/18/1 672/19/1 673/20/1
f 719/17/1 718/18/1 673/19/1 674/20/1
f 720/17/1 719/18/1 674/19/1 675/20/1
f 721/17/1 720/18/1 675/19/1 676/20/1
f 722/17/1 721/18/1 676/19/1 677/20/1
f 723/17/1 722/18/1 677/19/1 678/20/1
f 724/17/1 723/18/1 678/19/1 679/20/1
f 725/17/1 726/18/1 681/19/1 680/20/1
f 727/5/1 728/6/1 683/7/1 682/8/1
f 729/21/1 727/22/1 682/23/1 730/24/1
f 731/21/1 729/22/1 730/23/1 732/24/1
f 733/21/1 731/22/1 732/23/1 734/24/1
f 735/21/1 733/22/1 734/23/1 736/24/1
f 737/21/1 735/22/1 736/23/1 738/24/1
f 739/21/1 737/22/1 738/23/1 740/24/1
f 741/21/1 739/22/1 740/23/1 742/24/1
f 743/21/1 741/22/1 742/23/1 744/24/1
f 745/21/1 743/22/1 744/23/1 746/24/1
f 747/21/1 745/22/1 746/23/1 685/24/1
f 748/13/1 747/14/1 685/15/1 684/16/1
f 749/5/1 750/6/1 687/7/1 686/8/1
f 751/21/1 749/22/1 686/23/1 752/24/1
f 753/21/1 751/22/1 752/23/1 754/24/1
f 755/21/1 753/22/1 754/23/1 756/24/1
f 757/21/1 755/22/1 756/23/1 758/24/1
f 759/21/1 757/22/1 758/23/1 760/24/1
f 761/21/1 759/22/1 760/23/1 762/24/1
f 763/21/1 761/22/1 762/23/1 764/24/1
f 765/21/1 763/22/1 764/23/1 766/24/1
f 767/21/1 765/22/1 766/23/1 768/24/1
f 769/21/1 767/22/1 768/23/1 770/24/1
f 771/21/1 769/22/1 770/23/1 772/24/1
f 773/13/1 771/14/1 772/15/1 689/16/1
f 774/1/1 775/2/1 776/3/1 691/4/1
f 777/17/1 774/18/1 691/19/1 690/20/1
f 778/17/1 779/18/1 726/19/1 725/20/1
f 780/25/1 778/26/1 725/27/1 781/28/1
f 782/25/1 780/26/1 781/27/1 783/28/1
f 784/45/1 782/46/1 783/47/1 785/48/1
f 786/25/1 784/26/1 785/27/1 787/28/1
f 788/41/1 786/42/1 787/43/1 789/44/1
f 790/41/1 788/42/1 789/43/1 791/44/1
f 792/25/1 790/26/1 791/27/1 793/28/1
f 794/25/1 792/26/1 793/27/1 795/28/1
f 796/25/1 794/26/1 795/27/1 797/28/1
f 798/25/1 796/26/1 797/27/1 799/28/1
f 800/1/1 801/2/1 802/3/1 775/4/1
f 803/17/1 800/18/1 775/19/1 774/20/1
f 804/17/1 803/18/1 774/19/1 777/20/1
f 805/17/1 806/18/1 796/19/1 798/20/1
f 807/1/1 808/2/1 809/3/1 801/4/1
f 810/17/1 807/18/1 801/19/1 800/20/1
f 811/17/1 810/18/1 800/19/1 803/20/1
f 812/17/1 811/18/1 803/19/1 804/20/1
f 813/17/1 814/18/1 806/19/1 805/20/1
f 815/25/1 813/26/1 805/27/1 816/28/1
f 817/25/1 815/26/1 816/27/1 818/28/1
f 819/25/1 817/26/1 818/27/1 820/28/1
f 821/25/1 819/26/1 820/27/1 822/28/1
f 823/25/1 821/26/1 822/27/1 824/28/1
f 825/25/1 823/26/1 824/27/1 826/28/1
f 827/25/1 825/26/1 826/27/1 828/28/1
f 829/25/1 827/26/1 828/27/1 830/28/1
f 831/25/1 829/26/1 830/27/1 832/28/1
f 833/25/1 831/26/1 832/27/1 834/28/1
f 835/25/1 833/26/1 834/27/1 836/28/1
f 837/25/1 835/26/1 836/27/1 838/28/1
f 839/25/1 837/26/1 838/27/1 840/28/1
f 841/25/1 839/26/1 840/27/1 842/28/1
f 843/41/1 841/42/1 842/43/1 844/44/1
f 845/41/1 843/42/1 844/43/1 846/44/1
f 847/41/1 845/42/1 846/43/1 848/44/1
f 849/25/1 847/26/1 848/27/1 850/28/1
f 851/25/1 849/26/1 850/27/1 852/28/1
f 853/25/1 851/26/1 852/27/1 854/28/1
f 855/25/1 853/26/1 854/27/1 856/28/1
f 857/25/1 855/26/1 856/27/1 858/28/1
f 859/25/1 857/26/1 858/27/1 860/28/1
f 861/25/1 859/26/1 860/27/1 862/28/1
f 863/25/1 861/26/1 862/27/1 864/28/1
f 865/25/1 863/26/1 864/27/1 866/28/1
f 867/25/1 865/26/1 866/27/1 868/28/1
f 869/25/1 867/26/1 868/27/1 870/28/1
f 871/25/1 869/26/1 870/27/1 872/28/1
f 873/25/1 871/26/1 872/27/1 874/28/1
f 875/25/1 873/26/1 874/27/1 808/28/1
f 876/17/1 875/18/1 808/19/1 807/20/1
f 877/17/1 876/18/1 807/19/1 810/20/1
f 878/17/1 877/18/1 810/19/1 811/20/1
f 879/17/1 878/18/1 811/19/1 812/20/1

g mesh_0002
f 880/61/1 881/62/1 216/63/1 882/64/1
f 883/65/1 884/66/1 885/67/1 220/68/1
f 886/61/1 887/62/1 880/63/1 888/64/1
f 889/65/1 890/66/1 891/67/1 884/68/1
f 892/61/1 893/62/1 886/63/1 894/64/1
f 895/65/1 896/66/1 897/67/1 890/68/1
f 898/61/1 899/62/1 892/63/1 900/64/1
f 901/65/1 902/66/1 903/67/1 896/68/1
f 316/61/1 904/62/1 898/63/1 905/64/1
f 906/65/1 321/66/1 907/67/1 902/68/1

